{
  "project_info": {
    "project_number": "972567980553",
    "project_id": "topgames-f4aed",
    "storage_bucket": "topgames-f4aed.appspot.com"
  },
  "client": [
    {
      "client_info": {
        "mobilesdk_app_id": "1:972567980553:android:3d90db8616019281a826d8",
        "android_client_info": {
          "package_name": "com.topgames"
        }
      },
      "oauth_client": [
        {
          "client_id": "972567980553-j4emgm3am9066tjvtfbp8h24svfr5iu6.apps.googleusercontent.com",
          "client_type": 1,
          "android_info": {
            "package_name": "com.topgames",
            "certificate_hash": "5e8f16062ea3cd2c4a0d547876baa6f38cabf625"
          }
        },
        {
          "client_id": "972567980553-pfo6nuo9f7g6jq7f554oqpeh5e0vo8co.apps.googleusercontent.com",
          "client_type": 3
        }
      ],
      "api_key": [
        {
          "current_key": "AIzaSyBaUnoe7drRI2JJW6z8QyWUQsc18x4aVTc"
        }
      ],
      "services": {
        "appinvite_service": {
          "other_platform_oauth_client": [
            {
              "client_id": "972567980553-pfo6nuo9f7g6jq7f554oqpeh5e0vo8co.apps.googleusercontent.com",
              "client_type": 3
            }
          ]
        }
      }
    }
  ],
  "configuration_version": "1"
}